^C:\USERS\ETHZRT\DOCUMENTS\MSC-GENERATOR\CAIRO_PROJECT\LIBPNG\PROJECTS\VSTUDIO\ZLIB\RELEASE LIBRARY\ADLER32.SBR|C:\USERS\ETHZRT\DOCUMENTS\MSC-GENERATOR\CAIRO_PROJECT\LIBPNG\PROJECTS\VSTUDIO\ZLIB\RELEASE LIBRARY\COMPRESS.SBR|C:\USERS\ETHZRT\DOCUMENTS\MSC-GENERATOR\CAIRO_PROJECT\LIBPNG\PROJECTS\VSTUDIO\ZLIB\RELEASE LIBRARY\CRC32.SBR|C:\USERS\ETHZRT\DOCUMENTS\MSC-GENERATOR\CAIRO_PROJECT\LIBPNG\PROJECTS\VSTUDIO\ZLIB\RELEASE LIBRARY\DEFLATE.SBR|C:\USERS\ETHZRT\DOCUMENTS\MSC-GENERATOR\CAIRO_PROJECT\LIBPNG\PROJECTS\VSTUDIO\ZLIB\RELEASE LIBRARY\INFBACK.SBR|C:\USERS\ETHZRT\DOCUMENTS\MSC-GENERATOR\CAIRO_PROJECT\LIBPNG\PROJECTS\VSTUDIO\ZLIB\RELEASE LIBRARY\INFFAST.SBR|C:\USERS\ETHZRT\DOCUMENTS\MSC-GENERATOR\CAIRO_PROJECT\LIBPNG\PROJECTS\VSTUDIO\ZLIB\RELEASE LIBRARY\INFLATE.SBR|C:\USERS\ETHZRT\DOCUMENTS\MSC-GENERATOR\CAIRO_PROJECT\LIBPNG\PROJECTS\VSTUDIO\ZLIB\RELEASE LIBRARY\INFTREES.SBR|C:\USERS\ETHZRT\DOCUMENTS\MSC-GENERATOR\CAIRO_PROJECT\LIBPNG\PROJECTS\VSTUDIO\ZLIB\RELEASE LIBRARY\TREES.SBR|C:\USERS\ETHZRT\DOCUMENTS\MSC-GENERATOR\CAIRO_PROJECT\LIBPNG\PROJECTS\VSTUDIO\ZLIB\RELEASE LIBRARY\UNCOMPR.SBR|C:\USERS\ETHZRT\DOCUMENTS\MSC-GENERATOR\CAIRO_PROJECT\LIBPNG\PROJECTS\VSTUDIO\ZLIB\RELEASE LIBRARY\ZUTIL.SBR
C:\WINDOWS\SYSTEM32\TZRES.DLL
C:\USERS\ETHZRT\DOCUMENTS\MSC-GENERATOR\CAIRO_PROJECT\LIBPNG\PROJECTS\VSTUDIO\ZLIB\RELEASE LIBRARY\ADLER32.SBR
C:\USERS\ETHZRT\DOCUMENTS\MSC-GENERATOR\CAIRO_PROJECT\LIBPNG\PROJECTS\VSTUDIO\ZLIB\RELEASE LIBRARY\COMPRESS.SBR
C:\USERS\ETHZRT\DOCUMENTS\MSC-GENERATOR\CAIRO_PROJECT\LIBPNG\PROJECTS\VSTUDIO\ZLIB\RELEASE LIBRARY\CRC32.SBR
C:\USERS\ETHZRT\DOCUMENTS\MSC-GENERATOR\CAIRO_PROJECT\LIBPNG\PROJECTS\VSTUDIO\ZLIB\RELEASE LIBRARY\DEFLATE.SBR
C:\USERS\ETHZRT\DOCUMENTS\MSC-GENERATOR\CAIRO_PROJECT\LIBPNG\PROJECTS\VSTUDIO\ZLIB\RELEASE LIBRARY\INFBACK.SBR
C:\USERS\ETHZRT\DOCUMENTS\MSC-GENERATOR\CAIRO_PROJECT\LIBPNG\PROJECTS\VSTUDIO\ZLIB\RELEASE LIBRARY\INFFAST.SBR
C:\USERS\ETHZRT\DOCUMENTS\MSC-GENERATOR\CAIRO_PROJECT\LIBPNG\PROJECTS\VSTUDIO\ZLIB\RELEASE LIBRARY\INFLATE.SBR
C:\USERS\ETHZRT\DOCUMENTS\MSC-GENERATOR\CAIRO_PROJECT\LIBPNG\PROJECTS\VSTUDIO\ZLIB\RELEASE LIBRARY\INFTREES.SBR
C:\USERS\ETHZRT\DOCUMENTS\MSC-GENERATOR\CAIRO_PROJECT\LIBPNG\PROJECTS\VSTUDIO\ZLIB\RELEASE LIBRARY\TREES.SBR
C:\USERS\ETHZRT\DOCUMENTS\MSC-GENERATOR\CAIRO_PROJECT\LIBPNG\PROJECTS\VSTUDIO\ZLIB\RELEASE LIBRARY\UNCOMPR.SBR
C:\USERS\ETHZRT\DOCUMENTS\MSC-GENERATOR\CAIRO_PROJECT\LIBPNG\PROJECTS\VSTUDIO\ZLIB\RELEASE LIBRARY\ZUTIL.SBR
