^C:\USERS\ETHZRT\DOCUMENTS\MSC-GENERATOR\CAIRO_PROJECT\ZLIB\ADLER32.C
C:\USERS\ETHZRT\DOCUMENTS\MSC-GENERATOR\CAIRO_PROJECT\ZLIB\ZUTIL.H
C:\USERS\ETHZRT\DOCUMENTS\MSC-GENERATOR\CAIRO_PROJECT\ZLIB\ZLIB.H
C:\USERS\ETHZRT\DOCUMENTS\MSC-GENERATOR\CAIRO_PROJECT\ZLIB\ZCONF.H
^C:\USERS\ETHZRT\DOCUMENTS\MSC-GENERATOR\CAIRO_PROJECT\ZLIB\COMPRESS.C
C:\USERS\ETHZRT\DOCUMENTS\MSC-GENERATOR\CAIRO_PROJECT\ZLIB\ZLIB.H
C:\USERS\ETHZRT\DOCUMENTS\MSC-GENERATOR\CAIRO_PROJECT\ZLIB\ZCONF.H
^C:\USERS\ETHZRT\DOCUMENTS\MSC-GENERATOR\CAIRO_PROJECT\ZLIB\CRC32.C
C:\USERS\ETHZRT\DOCUMENTS\MSC-GENERATOR\CAIRO_PROJECT\ZLIB\ZUTIL.H
C:\USERS\ETHZRT\DOCUMENTS\MSC-GENERATOR\CAIRO_PROJECT\ZLIB\ZLIB.H
C:\USERS\ETHZRT\DOCUMENTS\MSC-GENERATOR\CAIRO_PROJECT\ZLIB\ZCONF.H
C:\USERS\ETHZRT\DOCUMENTS\MSC-GENERATOR\CAIRO_PROJECT\ZLIB\CRC32.H
^C:\USERS\ETHZRT\DOCUMENTS\MSC-GENERATOR\CAIRO_PROJECT\ZLIB\DEFLATE.C
C:\USERS\ETHZRT\DOCUMENTS\MSC-GENERATOR\CAIRO_PROJECT\ZLIB\DEFLATE.H
C:\USERS\ETHZRT\DOCUMENTS\MSC-GENERATOR\CAIRO_PROJECT\ZLIB\ZUTIL.H
C:\USERS\ETHZRT\DOCUMENTS\MSC-GENERATOR\CAIRO_PROJECT\ZLIB\ZLIB.H
C:\USERS\ETHZRT\DOCUMENTS\MSC-GENERATOR\CAIRO_PROJECT\ZLIB\ZCONF.H
^C:\USERS\ETHZRT\DOCUMENTS\MSC-GENERATOR\CAIRO_PROJECT\ZLIB\INFBACK.C
C:\USERS\ETHZRT\DOCUMENTS\MSC-GENERATOR\CAIRO_PROJECT\ZLIB\ZUTIL.H
C:\USERS\ETHZRT\DOCUMENTS\MSC-GENERATOR\CAIRO_PROJECT\ZLIB\ZLIB.H
C:\USERS\ETHZRT\DOCUMENTS\MSC-GENERATOR\CAIRO_PROJECT\ZLIB\ZCONF.H
C:\USERS\ETHZRT\DOCUMENTS\MSC-GENERATOR\CAIRO_PROJECT\ZLIB\INFTREES.H
C:\USERS\ETHZRT\DOCUMENTS\MSC-GENERATOR\CAIRO_PROJECT\ZLIB\INFLATE.H
C:\USERS\ETHZRT\DOCUMENTS\MSC-GENERATOR\CAIRO_PROJECT\ZLIB\INFFAST.H
C:\USERS\ETHZRT\DOCUMENTS\MSC-GENERATOR\CAIRO_PROJECT\ZLIB\INFFIXED.H
^C:\USERS\ETHZRT\DOCUMENTS\MSC-GENERATOR\CAIRO_PROJECT\ZLIB\INFFAST.C
C:\USERS\ETHZRT\DOCUMENTS\MSC-GENERATOR\CAIRO_PROJECT\ZLIB\ZUTIL.H
C:\USERS\ETHZRT\DOCUMENTS\MSC-GENERATOR\CAIRO_PROJECT\ZLIB\ZLIB.H
C:\USERS\ETHZRT\DOCUMENTS\MSC-GENERATOR\CAIRO_PROJECT\ZLIB\ZCONF.H
C:\USERS\ETHZRT\DOCUMENTS\MSC-GENERATOR\CAIRO_PROJECT\ZLIB\INFTREES.H
C:\USERS\ETHZRT\DOCUMENTS\MSC-GENERATOR\CAIRO_PROJECT\ZLIB\INFLATE.H
C:\USERS\ETHZRT\DOCUMENTS\MSC-GENERATOR\CAIRO_PROJECT\ZLIB\INFFAST.H
^C:\USERS\ETHZRT\DOCUMENTS\MSC-GENERATOR\CAIRO_PROJECT\ZLIB\INFLATE.C
C:\USERS\ETHZRT\DOCUMENTS\MSC-GENERATOR\CAIRO_PROJECT\ZLIB\ZUTIL.H
C:\USERS\ETHZRT\DOCUMENTS\MSC-GENERATOR\CAIRO_PROJECT\ZLIB\ZLIB.H
C:\USERS\ETHZRT\DOCUMENTS\MSC-GENERATOR\CAIRO_PROJECT\ZLIB\ZCONF.H
C:\USERS\ETHZRT\DOCUMENTS\MSC-GENERATOR\CAIRO_PROJECT\ZLIB\INFTREES.H
C:\USERS\ETHZRT\DOCUMENTS\MSC-GENERATOR\CAIRO_PROJECT\ZLIB\INFLATE.H
C:\USERS\ETHZRT\DOCUMENTS\MSC-GENERATOR\CAIRO_PROJECT\ZLIB\INFFAST.H
C:\USERS\ETHZRT\DOCUMENTS\MSC-GENERATOR\CAIRO_PROJECT\ZLIB\INFFIXED.H
^C:\USERS\ETHZRT\DOCUMENTS\MSC-GENERATOR\CAIRO_PROJECT\ZLIB\INFTREES.C
C:\USERS\ETHZRT\DOCUMENTS\MSC-GENERATOR\CAIRO_PROJECT\ZLIB\ZUTIL.H
C:\USERS\ETHZRT\DOCUMENTS\MSC-GENERATOR\CAIRO_PROJECT\ZLIB\ZLIB.H
C:\USERS\ETHZRT\DOCUMENTS\MSC-GENERATOR\CAIRO_PROJECT\ZLIB\ZCONF.H
C:\USERS\ETHZRT\DOCUMENTS\MSC-GENERATOR\CAIRO_PROJECT\ZLIB\INFTREES.H
^C:\USERS\ETHZRT\DOCUMENTS\MSC-GENERATOR\CAIRO_PROJECT\ZLIB\TREES.C
C:\USERS\ETHZRT\DOCUMENTS\MSC-GENERATOR\CAIRO_PROJECT\ZLIB\DEFLATE.H
C:\USERS\ETHZRT\DOCUMENTS\MSC-GENERATOR\CAIRO_PROJECT\ZLIB\ZUTIL.H
C:\USERS\ETHZRT\DOCUMENTS\MSC-GENERATOR\CAIRO_PROJECT\ZLIB\ZLIB.H
C:\USERS\ETHZRT\DOCUMENTS\MSC-GENERATOR\CAIRO_PROJECT\ZLIB\ZCONF.H
C:\USERS\ETHZRT\DOCUMENTS\MSC-GENERATOR\CAIRO_PROJECT\ZLIB\TREES.H
^C:\USERS\ETHZRT\DOCUMENTS\MSC-GENERATOR\CAIRO_PROJECT\ZLIB\UNCOMPR.C
C:\USERS\ETHZRT\DOCUMENTS\MSC-GENERATOR\CAIRO_PROJECT\ZLIB\ZLIB.H
C:\USERS\ETHZRT\DOCUMENTS\MSC-GENERATOR\CAIRO_PROJECT\ZLIB\ZCONF.H
^C:\USERS\ETHZRT\DOCUMENTS\MSC-GENERATOR\CAIRO_PROJECT\ZLIB\ZUTIL.C
C:\USERS\ETHZRT\DOCUMENTS\MSC-GENERATOR\CAIRO_PROJECT\ZLIB\ZUTIL.H
C:\USERS\ETHZRT\DOCUMENTS\MSC-GENERATOR\CAIRO_PROJECT\ZLIB\ZLIB.H
C:\USERS\ETHZRT\DOCUMENTS\MSC-GENERATOR\CAIRO_PROJECT\ZLIB\ZCONF.H
