^C:\USERS\ETHZRT\DOCUMENTS\MSC-GENERATOR\CAIRO_PROJECT\ZLIB\ADLER32.C|C:\USERS\ETHZRT\DOCUMENTS\MSC-GENERATOR\CAIRO_PROJECT\ZLIB\COMPRESS.C|C:\USERS\ETHZRT\DOCUMENTS\MSC-GENERATOR\CAIRO_PROJECT\ZLIB\CRC32.C|C:\USERS\ETHZRT\DOCUMENTS\MSC-GENERATOR\CAIRO_PROJECT\ZLIB\DEFLATE.C|C:\USERS\ETHZRT\DOCUMENTS\MSC-GENERATOR\CAIRO_PROJECT\ZLIB\INFBACK.C|C:\USERS\ETHZRT\DOCUMENTS\MSC-GENERATOR\CAIRO_PROJECT\ZLIB\INFFAST.C|C:\USERS\ETHZRT\DOCUMENTS\MSC-GENERATOR\CAIRO_PROJECT\ZLIB\INFLATE.C|C:\USERS\ETHZRT\DOCUMENTS\MSC-GENERATOR\CAIRO_PROJECT\ZLIB\INFTREES.C|C:\USERS\ETHZRT\DOCUMENTS\MSC-GENERATOR\CAIRO_PROJECT\ZLIB\TREES.C|C:\USERS\ETHZRT\DOCUMENTS\MSC-GENERATOR\CAIRO_PROJECT\ZLIB\UNCOMPR.C|C:\USERS\ETHZRT\DOCUMENTS\MSC-GENERATOR\CAIRO_PROJECT\ZLIB\ZUTIL.C
C:\USERS\ETHZRT\DOCUMENTS\MSC-GENERATOR\CAIRO_PROJECT\LIBPNG\PROJECTS\VSTUDIO\ZLIB\RELEASE LIBRARY\ZLIB.PDB
C:\USERS\ETHZRT\DOCUMENTS\MSC-GENERATOR\CAIRO_PROJECT\LIBPNG\PROJECTS\VSTUDIO\ZLIB\RELEASE LIBRARY\ADLER32.SBR
C:\USERS\ETHZRT\DOCUMENTS\MSC-GENERATOR\CAIRO_PROJECT\LIBPNG\PROJECTS\VSTUDIO\ZLIB\RELEASE LIBRARY\COMPRESS.SBR
C:\USERS\ETHZRT\DOCUMENTS\MSC-GENERATOR\CAIRO_PROJECT\LIBPNG\PROJECTS\VSTUDIO\ZLIB\RELEASE LIBRARY\CRC32.SBR
C:\USERS\ETHZRT\DOCUMENTS\MSC-GENERATOR\CAIRO_PROJECT\LIBPNG\PROJECTS\VSTUDIO\ZLIB\RELEASE LIBRARY\DEFLATE.SBR
C:\USERS\ETHZRT\DOCUMENTS\MSC-GENERATOR\CAIRO_PROJECT\LIBPNG\PROJECTS\VSTUDIO\ZLIB\RELEASE LIBRARY\INFBACK.SBR
C:\USERS\ETHZRT\DOCUMENTS\MSC-GENERATOR\CAIRO_PROJECT\LIBPNG\PROJECTS\VSTUDIO\ZLIB\RELEASE LIBRARY\INFFAST.SBR
C:\USERS\ETHZRT\DOCUMENTS\MSC-GENERATOR\CAIRO_PROJECT\LIBPNG\PROJECTS\VSTUDIO\ZLIB\RELEASE LIBRARY\INFLATE.SBR
C:\USERS\ETHZRT\DOCUMENTS\MSC-GENERATOR\CAIRO_PROJECT\LIBPNG\PROJECTS\VSTUDIO\ZLIB\RELEASE LIBRARY\INFTREES.SBR
C:\USERS\ETHZRT\DOCUMENTS\MSC-GENERATOR\CAIRO_PROJECT\LIBPNG\PROJECTS\VSTUDIO\ZLIB\RELEASE LIBRARY\TREES.SBR
C:\USERS\ETHZRT\DOCUMENTS\MSC-GENERATOR\CAIRO_PROJECT\LIBPNG\PROJECTS\VSTUDIO\ZLIB\RELEASE LIBRARY\UNCOMPR.SBR
C:\USERS\ETHZRT\DOCUMENTS\MSC-GENERATOR\CAIRO_PROJECT\LIBPNG\PROJECTS\VSTUDIO\ZLIB\RELEASE LIBRARY\ZUTIL.SBR
C:\USERS\ETHZRT\DOCUMENTS\MSC-GENERATOR\CAIRO_PROJECT\LIBPNG\PROJECTS\VSTUDIO\ZLIB\RELEASE LIBRARY\ZUTIL.OBJ
C:\USERS\ETHZRT\DOCUMENTS\MSC-GENERATOR\CAIRO_PROJECT\LIBPNG\PROJECTS\VSTUDIO\ZLIB\RELEASE LIBRARY\UNCOMPR.OBJ
C:\USERS\ETHZRT\DOCUMENTS\MSC-GENERATOR\CAIRO_PROJECT\LIBPNG\PROJECTS\VSTUDIO\ZLIB\RELEASE LIBRARY\TREES.OBJ
C:\USERS\ETHZRT\DOCUMENTS\MSC-GENERATOR\CAIRO_PROJECT\LIBPNG\PROJECTS\VSTUDIO\ZLIB\RELEASE LIBRARY\INFTREES.OBJ
C:\USERS\ETHZRT\DOCUMENTS\MSC-GENERATOR\CAIRO_PROJECT\LIBPNG\PROJECTS\VSTUDIO\ZLIB\RELEASE LIBRARY\INFLATE.OBJ
C:\USERS\ETHZRT\DOCUMENTS\MSC-GENERATOR\CAIRO_PROJECT\LIBPNG\PROJECTS\VSTUDIO\ZLIB\RELEASE LIBRARY\INFFAST.OBJ
C:\USERS\ETHZRT\DOCUMENTS\MSC-GENERATOR\CAIRO_PROJECT\LIBPNG\PROJECTS\VSTUDIO\ZLIB\RELEASE LIBRARY\INFBACK.OBJ
C:\USERS\ETHZRT\DOCUMENTS\MSC-GENERATOR\CAIRO_PROJECT\LIBPNG\PROJECTS\VSTUDIO\ZLIB\RELEASE LIBRARY\DEFLATE.OBJ
C:\USERS\ETHZRT\DOCUMENTS\MSC-GENERATOR\CAIRO_PROJECT\LIBPNG\PROJECTS\VSTUDIO\ZLIB\RELEASE LIBRARY\CRC32.OBJ
C:\USERS\ETHZRT\DOCUMENTS\MSC-GENERATOR\CAIRO_PROJECT\LIBPNG\PROJECTS\VSTUDIO\ZLIB\RELEASE LIBRARY\COMPRESS.OBJ
C:\USERS\ETHZRT\DOCUMENTS\MSC-GENERATOR\CAIRO_PROJECT\LIBPNG\PROJECTS\VSTUDIO\ZLIB\RELEASE LIBRARY\ADLER32.OBJ
^C:\USERS\ETHZRT\DOCUMENTS\MSC-GENERATOR\CAIRO_PROJECT\ZLIB\ADLER32.C
C:\USERS\ETHZRT\DOCUMENTS\MSC-GENERATOR\CAIRO_PROJECT\LIBPNG\PROJECTS\VSTUDIO\ZLIB\RELEASE LIBRARY\ZLIB.PDB
^C:\USERS\ETHZRT\DOCUMENTS\MSC-GENERATOR\CAIRO_PROJECT\ZLIB\COMPRESS.C
C:\USERS\ETHZRT\DOCUMENTS\MSC-GENERATOR\CAIRO_PROJECT\LIBPNG\PROJECTS\VSTUDIO\ZLIB\RELEASE LIBRARY\ZLIB.PDB
^C:\USERS\ETHZRT\DOCUMENTS\MSC-GENERATOR\CAIRO_PROJECT\ZLIB\CRC32.C
C:\USERS\ETHZRT\DOCUMENTS\MSC-GENERATOR\CAIRO_PROJECT\LIBPNG\PROJECTS\VSTUDIO\ZLIB\RELEASE LIBRARY\ZLIB.PDB
^C:\USERS\ETHZRT\DOCUMENTS\MSC-GENERATOR\CAIRO_PROJECT\ZLIB\DEFLATE.C
C:\USERS\ETHZRT\DOCUMENTS\MSC-GENERATOR\CAIRO_PROJECT\LIBPNG\PROJECTS\VSTUDIO\ZLIB\RELEASE LIBRARY\ZLIB.PDB
^C:\USERS\ETHZRT\DOCUMENTS\MSC-GENERATOR\CAIRO_PROJECT\ZLIB\INFBACK.C
C:\USERS\ETHZRT\DOCUMENTS\MSC-GENERATOR\CAIRO_PROJECT\LIBPNG\PROJECTS\VSTUDIO\ZLIB\RELEASE LIBRARY\ZLIB.PDB
^C:\USERS\ETHZRT\DOCUMENTS\MSC-GENERATOR\CAIRO_PROJECT\ZLIB\INFFAST.C
C:\USERS\ETHZRT\DOCUMENTS\MSC-GENERATOR\CAIRO_PROJECT\LIBPNG\PROJECTS\VSTUDIO\ZLIB\RELEASE LIBRARY\ZLIB.PDB
^C:\USERS\ETHZRT\DOCUMENTS\MSC-GENERATOR\CAIRO_PROJECT\ZLIB\INFLATE.C
C:\USERS\ETHZRT\DOCUMENTS\MSC-GENERATOR\CAIRO_PROJECT\LIBPNG\PROJECTS\VSTUDIO\ZLIB\RELEASE LIBRARY\ZLIB.PDB
^C:\USERS\ETHZRT\DOCUMENTS\MSC-GENERATOR\CAIRO_PROJECT\ZLIB\INFTREES.C
C:\USERS\ETHZRT\DOCUMENTS\MSC-GENERATOR\CAIRO_PROJECT\LIBPNG\PROJECTS\VSTUDIO\ZLIB\RELEASE LIBRARY\ZLIB.PDB
^C:\USERS\ETHZRT\DOCUMENTS\MSC-GENERATOR\CAIRO_PROJECT\ZLIB\TREES.C
C:\USERS\ETHZRT\DOCUMENTS\MSC-GENERATOR\CAIRO_PROJECT\LIBPNG\PROJECTS\VSTUDIO\ZLIB\RELEASE LIBRARY\ZLIB.PDB
^C:\USERS\ETHZRT\DOCUMENTS\MSC-GENERATOR\CAIRO_PROJECT\ZLIB\UNCOMPR.C
C:\USERS\ETHZRT\DOCUMENTS\MSC-GENERATOR\CAIRO_PROJECT\LIBPNG\PROJECTS\VSTUDIO\ZLIB\RELEASE LIBRARY\ZLIB.PDB
^C:\USERS\ETHZRT\DOCUMENTS\MSC-GENERATOR\CAIRO_PROJECT\ZLIB\ZUTIL.C
C:\USERS\ETHZRT\DOCUMENTS\MSC-GENERATOR\CAIRO_PROJECT\LIBPNG\PROJECTS\VSTUDIO\ZLIB\RELEASE LIBRARY\ZLIB.PDB
