relative_coord.block:30:14: error: This attribute value or style applied directly to a block caused a conflict. Ignoring it.
relative_coord.block:30:26: error: This attribute value or style applied directly to a block caused a conflict. Ignoring it.
There were errors, but a chart has been produced.
