^C:\USERS\ETHZRT\DOCUMENTS\MSC-GENERATOR\CAIRO_PROJECT\LIBPNG\PNG.C
/c /I..\..\..\..\ZLIB /Zi /nologo /Wall /WX /diagnostics:classic /Ox /Oi /Oy- /GL /D WIN32 /D NDEBUG /D _WINDOWS /D _MBCS /GF /Gm- /EHsc /MT /GS /Gy /fp:precise /fp:except- /Zc:wchar_t- /Zc:forScope /Zc:inline /Yc"pngpriv.h" /Fp"RELEASE LIBRARY\LIBPNG16.PCH" /Fo"RELEASE LIBRARY\\" /Fd"RELEASE LIBRARY\LIBPNG.PDB" /FR"Release Library\\" /Gd /TC /wd4255 /wd4668 /wd4710 /wd4711 /wd4746 /wd4820 /wd4996 /analyze- C:\USERS\ETHZRT\DOCUMENTS\MSC-GENERATOR\CAIRO_PROJECT\LIBPNG\PNG.C
^C:\USERS\ETHZRT\DOCUMENTS\MSC-GENERATOR\CAIRO_PROJECT\LIBPNG\PNGERROR.C
/c /I..\..\..\..\ZLIB /Zi /nologo /Wall /WX /diagnostics:classic /Ox /Oi /Oy- /GL /D WIN32 /D NDEBUG /D _WINDOWS /D _MBCS /GF /Gm- /EHsc /MT /GS /Gy /fp:precise /fp:except- /Zc:wchar_t- /Zc:forScope /Zc:inline /Yu"pngpriv.h" /Fp"RELEASE LIBRARY\LIBPNG16.PCH" /Fo"RELEASE LIBRARY\\" /Fd"RELEASE LIBRARY\LIBPNG.PDB" /FR"Release Library\\" /Gd /TC /wd4255 /wd4668 /wd4710 /wd4711 /wd4746 /wd4820 /wd4996 /analyze- C:\USERS\ETHZRT\DOCUMENTS\MSC-GENERATOR\CAIRO_PROJECT\LIBPNG\PNGERROR.C
^C:\USERS\ETHZRT\DOCUMENTS\MSC-GENERATOR\CAIRO_PROJECT\LIBPNG\PNGGET.C
/c /I..\..\..\..\ZLIB /Zi /nologo /Wall /WX /diagnostics:classic /Ox /Oi /Oy- /GL /D WIN32 /D NDEBUG /D _WINDOWS /D _MBCS /GF /Gm- /EHsc /MT /GS /Gy /fp:precise /fp:except- /Zc:wchar_t- /Zc:forScope /Zc:inline /Yu"pngpriv.h" /Fp"RELEASE LIBRARY\LIBPNG16.PCH" /Fo"RELEASE LIBRARY\\" /Fd"RELEASE LIBRARY\LIBPNG.PDB" /FR"Release Library\\" /Gd /TC /wd4255 /wd4668 /wd4710 /wd4711 /wd4746 /wd4820 /wd4996 /analyze- C:\USERS\ETHZRT\DOCUMENTS\MSC-GENERATOR\CAIRO_PROJECT\LIBPNG\PNGGET.C
^C:\USERS\ETHZRT\DOCUMENTS\MSC-GENERATOR\CAIRO_PROJECT\LIBPNG\PNGMEM.C
/c /I..\..\..\..\ZLIB /Zi /nologo /Wall /WX /diagnostics:classic /Ox /Oi /Oy- /GL /D WIN32 /D NDEBUG /D _WINDOWS /D _MBCS /GF /Gm- /EHsc /MT /GS /Gy /fp:precise /fp:except- /Zc:wchar_t- /Zc:forScope /Zc:inline /Yu"pngpriv.h" /Fp"RELEASE LIBRARY\LIBPNG16.PCH" /Fo"RELEASE LIBRARY\\" /Fd"RELEASE LIBRARY\LIBPNG.PDB" /FR"Release Library\\" /Gd /TC /wd4255 /wd4668 /wd4710 /wd4711 /wd4746 /wd4820 /wd4996 /analyze- C:\USERS\ETHZRT\DOCUMENTS\MSC-GENERATOR\CAIRO_PROJECT\LIBPNG\PNGMEM.C
^C:\USERS\ETHZRT\DOCUMENTS\MSC-GENERATOR\CAIRO_PROJECT\LIBPNG\PNGPREAD.C
/c /I..\..\..\..\ZLIB /Zi /nologo /Wall /WX /diagnostics:classic /Ox /Oi /Oy- /GL /D WIN32 /D NDEBUG /D _WINDOWS /D _MBCS /GF /Gm- /EHsc /MT /GS /Gy /fp:precise /fp:except- /Zc:wchar_t- /Zc:forScope /Zc:inline /Yu"pngpriv.h" /Fp"RELEASE LIBRARY\LIBPNG16.PCH" /Fo"RELEASE LIBRARY\\" /Fd"RELEASE LIBRARY\LIBPNG.PDB" /FR"Release Library\\" /Gd /TC /wd4255 /wd4668 /wd4710 /wd4711 /wd4746 /wd4820 /wd4996 /analyze- C:\USERS\ETHZRT\DOCUMENTS\MSC-GENERATOR\CAIRO_PROJECT\LIBPNG\PNGPREAD.C
^C:\USERS\ETHZRT\DOCUMENTS\MSC-GENERATOR\CAIRO_PROJECT\LIBPNG\PNGREAD.C
/c /I..\..\..\..\ZLIB /Zi /nologo /Wall /WX /diagnostics:classic /Ox /Oi /Oy- /GL /D WIN32 /D NDEBUG /D _WINDOWS /D _MBCS /GF /Gm- /EHsc /MT /GS /Gy /fp:precise /fp:except- /Zc:wchar_t- /Zc:forScope /Zc:inline /Yu"pngpriv.h" /Fp"RELEASE LIBRARY\LIBPNG16.PCH" /Fo"RELEASE LIBRARY\\" /Fd"RELEASE LIBRARY\LIBPNG.PDB" /FR"Release Library\\" /Gd /TC /wd4255 /wd4668 /wd4710 /wd4711 /wd4746 /wd4820 /wd4996 /analyze- C:\USERS\ETHZRT\DOCUMENTS\MSC-GENERATOR\CAIRO_PROJECT\LIBPNG\PNGREAD.C
^C:\USERS\ETHZRT\DOCUMENTS\MSC-GENERATOR\CAIRO_PROJECT\LIBPNG\PNGRIO.C
/c /I..\..\..\..\ZLIB /Zi /nologo /Wall /WX /diagnostics:classic /Ox /Oi /Oy- /GL /D WIN32 /D NDEBUG /D _WINDOWS /D _MBCS /GF /Gm- /EHsc /MT /GS /Gy /fp:precise /fp:except- /Zc:wchar_t- /Zc:forScope /Zc:inline /Yu"pngpriv.h" /Fp"RELEASE LIBRARY\LIBPNG16.PCH" /Fo"RELEASE LIBRARY\\" /Fd"RELEASE LIBRARY\LIBPNG.PDB" /FR"Release Library\\" /Gd /TC /wd4255 /wd4668 /wd4710 /wd4711 /wd4746 /wd4820 /wd4996 /analyze- C:\USERS\ETHZRT\DOCUMENTS\MSC-GENERATOR\CAIRO_PROJECT\LIBPNG\PNGRIO.C
^C:\USERS\ETHZRT\DOCUMENTS\MSC-GENERATOR\CAIRO_PROJECT\LIBPNG\PNGRTRAN.C
/c /I..\..\..\..\ZLIB /Zi /nologo /Wall /WX /diagnostics:classic /Ox /Oi /Oy- /GL /D WIN32 /D NDEBUG /D _WINDOWS /D _MBCS /GF /Gm- /EHsc /MT /GS /Gy /fp:precise /fp:except- /Zc:wchar_t- /Zc:forScope /Zc:inline /Yu"pngpriv.h" /Fp"RELEASE LIBRARY\LIBPNG16.PCH" /Fo"RELEASE LIBRARY\\" /Fd"RELEASE LIBRARY\LIBPNG.PDB" /FR"Release Library\\" /Gd /TC /wd4255 /wd4668 /wd4710 /wd4711 /wd4746 /wd4820 /wd4996 /analyze- C:\USERS\ETHZRT\DOCUMENTS\MSC-GENERATOR\CAIRO_PROJECT\LIBPNG\PNGRTRAN.C
^C:\USERS\ETHZRT\DOCUMENTS\MSC-GENERATOR\CAIRO_PROJECT\LIBPNG\PNGRUTIL.C
/c /I..\..\..\..\ZLIB /Zi /nologo /Wall /WX /diagnostics:classic /Ox /Oi /Oy- /GL /D WIN32 /D NDEBUG /D _WINDOWS /D _MBCS /GF /Gm- /EHsc /MT /GS /Gy /fp:precise /fp:except- /Zc:wchar_t- /Zc:forScope /Zc:inline /Yu"pngpriv.h" /Fp"RELEASE LIBRARY\LIBPNG16.PCH" /Fo"RELEASE LIBRARY\\" /Fd"RELEASE LIBRARY\LIBPNG.PDB" /FR"Release Library\\" /Gd /TC /wd4255 /wd4668 /wd4710 /wd4711 /wd4746 /wd4820 /wd4996 /analyze- C:\USERS\ETHZRT\DOCUMENTS\MSC-GENERATOR\CAIRO_PROJECT\LIBPNG\PNGRUTIL.C
^C:\USERS\ETHZRT\DOCUMENTS\MSC-GENERATOR\CAIRO_PROJECT\LIBPNG\PNGSET.C
/c /I..\..\..\..\ZLIB /Zi /nologo /Wall /WX /diagnostics:classic /Ox /Oi /Oy- /GL /D WIN32 /D NDEBUG /D _WINDOWS /D _MBCS /GF /Gm- /EHsc /MT /GS /Gy /fp:precise /fp:except- /Zc:wchar_t- /Zc:forScope /Zc:inline /Yu"pngpriv.h" /Fp"RELEASE LIBRARY\LIBPNG16.PCH" /Fo"RELEASE LIBRARY\\" /Fd"RELEASE LIBRARY\LIBPNG.PDB" /FR"Release Library\\" /Gd /TC /wd4255 /wd4668 /wd4710 /wd4711 /wd4746 /wd4820 /wd4996 /analyze- C:\USERS\ETHZRT\DOCUMENTS\MSC-GENERATOR\CAIRO_PROJECT\LIBPNG\PNGSET.C
^C:\USERS\ETHZRT\DOCUMENTS\MSC-GENERATOR\CAIRO_PROJECT\LIBPNG\PNGTRANS.C
/c /I..\..\..\..\ZLIB /Zi /nologo /Wall /WX /diagnostics:classic /Ox /Oi /Oy- /GL /D WIN32 /D NDEBUG /D _WINDOWS /D _MBCS /GF /Gm- /EHsc /MT /GS /Gy /fp:precise /fp:except- /Zc:wchar_t- /Zc:forScope /Zc:inline /Yu"pngpriv.h" /Fp"RELEASE LIBRARY\LIBPNG16.PCH" /Fo"RELEASE LIBRARY\\" /Fd"RELEASE LIBRARY\LIBPNG.PDB" /FR"Release Library\\" /Gd /TC /wd4255 /wd4668 /wd4710 /wd4711 /wd4746 /wd4820 /wd4996 /analyze- C:\USERS\ETHZRT\DOCUMENTS\MSC-GENERATOR\CAIRO_PROJECT\LIBPNG\PNGTRANS.C
^C:\USERS\ETHZRT\DOCUMENTS\MSC-GENERATOR\CAIRO_PROJECT\LIBPNG\PNGWIO.C
/c /I..\..\..\..\ZLIB /Zi /nologo /Wall /WX /diagnostics:classic /Ox /Oi /Oy- /GL /D WIN32 /D NDEBUG /D _WINDOWS /D _MBCS /GF /Gm- /EHsc /MT /GS /Gy /fp:precise /fp:except- /Zc:wchar_t- /Zc:forScope /Zc:inline /Yu"pngpriv.h" /Fp"RELEASE LIBRARY\LIBPNG16.PCH" /Fo"RELEASE LIBRARY\\" /Fd"RELEASE LIBRARY\LIBPNG.PDB" /FR"Release Library\\" /Gd /TC /wd4255 /wd4668 /wd4710 /wd4711 /wd4746 /wd4820 /wd4996 /analyze- C:\USERS\ETHZRT\DOCUMENTS\MSC-GENERATOR\CAIRO_PROJECT\LIBPNG\PNGWIO.C
^C:\USERS\ETHZRT\DOCUMENTS\MSC-GENERATOR\CAIRO_PROJECT\LIBPNG\PNGWRITE.C
/c /I..\..\..\..\ZLIB /Zi /nologo /Wall /WX /diagnostics:classic /Ox /Oi /Oy- /GL /D WIN32 /D NDEBUG /D _WINDOWS /D _MBCS /GF /Gm- /EHsc /MT /GS /Gy /fp:precise /fp:except- /Zc:wchar_t- /Zc:forScope /Zc:inline /Yu"pngpriv.h" /Fp"RELEASE LIBRARY\LIBPNG16.PCH" /Fo"RELEASE LIBRARY\\" /Fd"RELEASE LIBRARY\LIBPNG.PDB" /FR"Release Library\\" /Gd /TC /wd4255 /wd4668 /wd4710 /wd4711 /wd4746 /wd4820 /wd4996 /analyze- C:\USERS\ETHZRT\DOCUMENTS\MSC-GENERATOR\CAIRO_PROJECT\LIBPNG\PNGWRITE.C
^C:\USERS\ETHZRT\DOCUMENTS\MSC-GENERATOR\CAIRO_PROJECT\LIBPNG\PNGWTRAN.C
/c /I..\..\..\..\ZLIB /Zi /nologo /Wall /WX /diagnostics:classic /Ox /Oi /Oy- /GL /D WIN32 /D NDEBUG /D _WINDOWS /D _MBCS /GF /Gm- /EHsc /MT /GS /Gy /fp:precise /fp:except- /Zc:wchar_t- /Zc:forScope /Zc:inline /Yu"pngpriv.h" /Fp"RELEASE LIBRARY\LIBPNG16.PCH" /Fo"RELEASE LIBRARY\\" /Fd"RELEASE LIBRARY\LIBPNG.PDB" /FR"Release Library\\" /Gd /TC /wd4255 /wd4668 /wd4710 /wd4711 /wd4746 /wd4820 /wd4996 /analyze- C:\USERS\ETHZRT\DOCUMENTS\MSC-GENERATOR\CAIRO_PROJECT\LIBPNG\PNGWTRAN.C
^C:\USERS\ETHZRT\DOCUMENTS\MSC-GENERATOR\CAIRO_PROJECT\LIBPNG\PNGWUTIL.C
/c /I..\..\..\..\ZLIB /Zi /nologo /Wall /WX /diagnostics:classic /Ox /Oi /Oy- /GL /D WIN32 /D NDEBUG /D _WINDOWS /D _MBCS /GF /Gm- /EHsc /MT /GS /Gy /fp:precise /fp:except- /Zc:wchar_t- /Zc:forScope /Zc:inline /Yu"pngpriv.h" /Fp"RELEASE LIBRARY\LIBPNG16.PCH" /Fo"RELEASE LIBRARY\\" /Fd"RELEASE LIBRARY\LIBPNG.PDB" /FR"Release Library\\" /Gd /TC /wd4255 /wd4668 /wd4710 /wd4711 /wd4746 /wd4820 /wd4996 /analyze- C:\USERS\ETHZRT\DOCUMENTS\MSC-GENERATOR\CAIRO_PROJECT\LIBPNG\PNGWUTIL.C
