#https://stackoverflow.com/questions/34294445/how-can-i-use-in-a-label-in-graphviz-using-dot
digraph Quote{
    node [shape="record", style="rounded"];
    edge [style="dashed"];
    
    Explain [label="<0>\\| <1>\\| <2>\\| <3>\"|<res> result"];
    n0 [label="backslash to escape next backslash"];
    n1 [label="backslash"];
    n2 [label="backslash to escape next quote"];
    n3 [label="quote"];
    n4:: \\\";
    
    Explain:0 -> n0;
    Explain:1 -> n1;
    Explain:2 -> n2;
    Explain:3 -> n3;
    Explain:res -> n4;
    
    path [label="\\path\\file.txt"]
    path2:: \\path\\file.txt;
}