basic_graph_proc.graph:24:47: error: Unknown style. Ignoring.
basic_graph_proc.graph:37:17: error: Parameter $target has no default and requires a value. Ignoring procedure call.
basic_graph_proc.graph:6:15: (Here is the definition of this parameter.)
basic_graph_proc.graph:38:18: error: Parameter $target has no default and requires a value. Ignoring procedure call.
basic_graph_proc.graph:39:18: error: This parameter has no default and requires a value. Ignoring procedure call.
basic_graph_proc.graph:40:18: error: This parameter has no default and requires a value. Ignoring procedure call.
basic_graph_proc.graph:40:29: error: Procedure probe takes only 2 parameters. Ignoring procedure call.
There were errors, but a chart has been produced.
