ifthenelse.signalling:23:21: error: Unrecognized reference 'aa'. Ignoring it.
ifthenelse.signalling:23:21: (References are case-sensitive.)
ifthenelse.signalling:27:1: error: There are warnings or errors inside the procedure definition. Ignoring it.
ifthenelse.signalling:29:7: error: Missing condition after 'if'.
ifthenelse.signalling:30:12: error: Missing 'then' keyword.
ifthenelse.signalling:31:13: error: Missing 'then' keyword.
ifthenelse.signalling:32:13: error: Missing 'then' keyword.
ifthenelse.signalling:33:18: error: Missing a well-formed command after 'then'. Ignoring 'if' clause.
ifthenelse.signalling:37:9: error: Missing command after 'else'. Ignoring 'if' clause.
There were errors, but a chart has been produced.
